<?xml version="1.0" encoding="utf-8"?>
<!DOCTYPE eagle SYSTEM "eagle.dtd">
<eagle version="7.7.0">
<drawing>
<settings>
<setting alwaysvectorfont="no"/>
<setting verticaltext="up"/>
</settings>
<grid distance="0.05" unitdist="inch" unit="inch" style="lines" multiple="1" display="no" altdistance="0.025" altunitdist="inch" altunit="inch"/>
<layers>
<layer number="1" name="Top" color="4" fill="1" visible="yes" active="yes"/>
<layer number="2" name="Route2" color="1" fill="3" visible="no" active="no"/>
<layer number="3" name="Route3" color="4" fill="3" visible="no" active="no"/>
<layer number="14" name="Route14" color="1" fill="6" visible="no" active="no"/>
<layer number="15" name="Route15" color="4" fill="6" visible="no" active="no"/>
<layer number="16" name="Bottom" color="1" fill="1" visible="yes" active="yes"/>
<layer number="17" name="Pads" color="2" fill="1" visible="yes" active="yes"/>
<layer number="18" name="Vias" color="2" fill="1" visible="yes" active="yes"/>
<layer number="19" name="Unrouted" color="6" fill="1" visible="yes" active="yes"/>
<layer number="20" name="Dimension" color="15" fill="1" visible="yes" active="yes"/>
<layer number="21" name="tPlace" color="7" fill="1" visible="yes" active="yes"/>
<layer number="22" name="bPlace" color="7" fill="1" visible="no" active="yes"/>
<layer number="23" name="tOrigins" color="15" fill="1" visible="no" active="yes"/>
<layer number="24" name="bOrigins" color="15" fill="1" visible="no" active="yes"/>
<layer number="25" name="tNames" color="7" fill="1" visible="yes" active="yes"/>
<layer number="26" name="bNames" color="7" fill="1" visible="no" active="yes"/>
<layer number="27" name="tValues" color="7" fill="1" visible="yes" active="yes"/>
<layer number="28" name="bValues" color="7" fill="1" visible="no" active="yes"/>
<layer number="29" name="tStop" color="7" fill="3" visible="no" active="yes"/>
<layer number="30" name="bStop" color="7" fill="6" visible="no" active="yes"/>
<layer number="31" name="tCream" color="7" fill="4" visible="no" active="yes"/>
<layer number="32" name="bCream" color="7" fill="5" visible="no" active="yes"/>
<layer number="33" name="tFinish" color="6" fill="3" visible="no" active="yes"/>
<layer number="34" name="bFinish" color="6" fill="6" visible="no" active="yes"/>
<layer number="35" name="tGlue" color="7" fill="4" visible="no" active="yes"/>
<layer number="36" name="bGlue" color="7" fill="5" visible="no" active="yes"/>
<layer number="37" name="tTest" color="7" fill="1" visible="no" active="yes"/>
<layer number="38" name="bTest" color="7" fill="1" visible="no" active="yes"/>
<layer number="39" name="tKeepout" color="4" fill="11" visible="no" active="yes"/>
<layer number="40" name="bKeepout" color="1" fill="11" visible="no" active="yes"/>
<layer number="41" name="tRestrict" color="4" fill="10" visible="no" active="yes"/>
<layer number="42" name="bRestrict" color="1" fill="10" visible="no" active="yes"/>
<layer number="43" name="vRestrict" color="2" fill="10" visible="no" active="yes"/>
<layer number="44" name="Drills" color="7" fill="1" visible="no" active="yes"/>
<layer number="45" name="Holes" color="7" fill="1" visible="no" active="yes"/>
<layer number="46" name="Milling" color="3" fill="1" visible="no" active="yes"/>
<layer number="47" name="Measures" color="7" fill="1" visible="no" active="yes"/>
<layer number="48" name="Document" color="7" fill="1" visible="no" active="yes"/>
<layer number="49" name="Reference" color="7" fill="1" visible="no" active="yes"/>
<layer number="51" name="tDocu" color="7" fill="1" visible="yes" active="yes"/>
<layer number="52" name="bDocu" color="7" fill="1" visible="no" active="yes"/>
<layer number="90" name="Modules" color="5" fill="1" visible="no" active="no"/>
<layer number="91" name="Nets" color="2" fill="1" visible="no" active="no"/>
<layer number="92" name="Busses" color="1" fill="1" visible="no" active="no"/>
<layer number="93" name="Pins" color="2" fill="1" visible="no" active="no"/>
<layer number="94" name="Symbols" color="4" fill="1" visible="no" active="no"/>
<layer number="95" name="Names" color="7" fill="1" visible="no" active="no"/>
<layer number="96" name="Values" color="7" fill="1" visible="no" active="no"/>
<layer number="97" name="Info" color="7" fill="1" visible="no" active="no"/>
<layer number="98" name="Guide" color="6" fill="1" visible="no" active="no"/>
</layers>
<board>
<plain>
<wire x1="0" y1="0" x2="17.76" y2="0" width="0" layer="20"/>
<wire x1="17.76" y1="0" x2="17.76" y2="25.07" width="0" layer="20"/>
<wire x1="17.76" y1="25.07" x2="0" y2="25.07" width="0" layer="20"/>
<wire x1="0" y1="25.07" x2="0" y2="0" width="0" layer="20"/>
<text x="2.54" y="1.27" size="1.778" layer="21" rot="R270">+</text>
<text x="2.54" y="2.54" size="2.54" layer="1" font="vector" rot="R90">+</text>
</plain>
<libraries>
<library name="pot">
<description>&lt;b&gt;Potentiometers&lt;/b&gt;&lt;p&gt;
Beckman, Copal, Piher, Spectrol, Schukat&lt;p&gt;
&lt;author&gt;Created by librarian@cadsoft.de&lt;/author&gt;</description>
<packages>
<package name="3223G">
<description>&lt;b&gt;3 mm SMD Trimming Potentiometer&lt;/b&gt; Side Adjust&lt;p&gt;
Source: http://www.bourns.com/data/global/PDFs/3223.PDF</description>
<wire x1="-1.85" y1="1.85" x2="1.85" y2="1.85" width="0.2032" layer="51"/>
<wire x1="1.85" y1="1.85" x2="1.85" y2="-1.85" width="0.2032" layer="51"/>
<wire x1="1.85" y1="-1.85" x2="-1.85" y2="-1.85" width="0.2032" layer="51"/>
<wire x1="-1.85" y1="-1.85" x2="-1.85" y2="1.85" width="0.2032" layer="51"/>
<wire x1="-0.8975" y1="1.85" x2="1.85" y2="1.85" width="0.2032" layer="21"/>
<wire x1="1.85" y1="1.85" x2="1.85" y2="1.0075" width="0.2032" layer="21"/>
<wire x1="1.85" y1="-1.85" x2="-0.8975" y2="-1.85" width="0.2032" layer="21"/>
<wire x1="1.85" y1="-1.0075" x2="1.85" y2="-1.85" width="0.2032" layer="21"/>
<wire x1="-1.85" y1="-0.58" x2="-1.85" y2="0.58" width="0.2032" layer="21"/>
<smd name="1" x="-2.2" y="1.4" dx="2" dy="0.9" layer="1"/>
<smd name="2" x="2.2" y="0" dx="2" dy="1.3" layer="1"/>
<smd name="3" x="-2.2" y="-1.4" dx="2" dy="0.9" layer="1"/>
<text x="-1.5875" y="2.2225" size="1.27" layer="25">&gt;NAME</text>
<text x="-1.905" y="-3.4925" size="1.27" layer="27">&gt;VALUE</text>
<rectangle x1="-2.65" y1="1.075" x2="-1.925" y2="1.625" layer="51"/>
<rectangle x1="-2.65" y1="-1.625" x2="-1.925" y2="-1.075" layer="51"/>
<rectangle x1="1.925" y1="-0.5" x2="2.625" y2="0.5" layer="51"/>
</package>
</packages>
</library>
<library name="rcl">
<description>&lt;b&gt;Resistors, Capacitors, Inductors&lt;/b&gt;&lt;p&gt;
Based on the previous libraries:
&lt;ul&gt;
&lt;li&gt;r.lbr
&lt;li&gt;cap.lbr 
&lt;li&gt;cap-fe.lbr
&lt;li&gt;captant.lbr
&lt;li&gt;polcap.lbr
&lt;li&gt;ipc-smd.lbr
&lt;/ul&gt;
All SMD packages are defined according to the IPC specifications and  CECC&lt;p&gt;
&lt;author&gt;Created by librarian@cadsoft.de&lt;/author&gt;&lt;p&gt;
&lt;p&gt;
for Electrolyt Capacitors see also :&lt;p&gt;
www.bccomponents.com &lt;p&gt;
www.panasonic.com&lt;p&gt;
www.kemet.com&lt;p&gt;
http://www.secc.co.jp/pdf/os_e/2004/e_os_all.pdf &lt;b&gt;(SANYO)&lt;/b&gt;
&lt;p&gt;
for trimmer refence see : &lt;u&gt;www.electrospec-inc.com/cross_references/trimpotcrossref.asp&lt;/u&gt;&lt;p&gt;

&lt;table border=0 cellspacing=0 cellpadding=0 width="100%" cellpaddding=0&gt;
&lt;tr valign="top"&gt;

&lt;! &lt;td width="10"&gt;&amp;nbsp;&lt;/td&gt;
&lt;td width="90%"&gt;

&lt;b&gt;&lt;font color="#0000FF" size="4"&gt;TRIM-POT CROSS REFERENCE&lt;/font&gt;&lt;/b&gt;
&lt;P&gt;
&lt;TABLE BORDER=0 CELLSPACING=1 CELLPADDING=2&gt;
  &lt;TR&gt;
    &lt;TD COLSPAN=8&gt;
      &lt;FONT SIZE=3 FACE=ARIAL&gt;&lt;B&gt;RECTANGULAR MULTI-TURN&lt;/B&gt;&lt;/FONT&gt;
    &lt;/TD&gt;
  &lt;/TR&gt;
  &lt;TR&gt;
    &lt;TD ALIGN=CENTER&gt;
      &lt;B&gt;
      &lt;FONT SIZE=3 FACE=ARIAL color="#FF0000"&gt;BOURNS&lt;/FONT&gt;
      &lt;/B&gt;
    &lt;/TD&gt;
    &lt;TD ALIGN=CENTER&gt;
      &lt;B&gt;
      &lt;FONT SIZE=3 FACE=ARIAL color="#FF0000"&gt;BI&amp;nbsp;TECH&lt;/FONT&gt;
      &lt;/B&gt;
    &lt;/TD&gt;
    &lt;TD ALIGN=CENTER&gt;
      &lt;B&gt;
      &lt;FONT SIZE=3 FACE=ARIAL color="#FF0000"&gt;DALE-VISHAY&lt;/FONT&gt;
      &lt;/B&gt;
    &lt;/TD&gt;
    &lt;TD ALIGN=CENTER&gt;
      &lt;B&gt;
      &lt;FONT SIZE=3 FACE=ARIAL color="#FF0000"&gt;PHILIPS/MEPCO&lt;/FONT&gt;
      &lt;/B&gt;
    &lt;/TD&gt;
    &lt;TD ALIGN=CENTER&gt;
      &lt;B&gt;
      &lt;FONT SIZE=3 FACE=ARIAL color="#FF0000"&gt;MURATA&lt;/FONT&gt;
      &lt;/B&gt;
    &lt;/TD&gt;
    &lt;TD ALIGN=CENTER&gt;
      &lt;B&gt;
      &lt;FONT SIZE=3 FACE=ARIAL color="#FF0000"&gt;PANASONIC&lt;/FONT&gt;
      &lt;/B&gt;
    &lt;/TD&gt;
    &lt;TD ALIGN=CENTER&gt;
      &lt;B&gt;
      &lt;FONT SIZE=3 FACE=ARIAL color="#FF0000"&gt;SPECTROL&lt;/FONT&gt;
      &lt;/B&gt;
    &lt;/TD&gt;
    &lt;TD ALIGN=CENTER&gt;
      &lt;B&gt;
      &lt;FONT SIZE=3 FACE=ARIAL color="#FF0000"&gt;MILSPEC&lt;/FONT&gt;
      &lt;/B&gt;
    &lt;/TD&gt;&lt;TD&gt;&amp;nbsp;&lt;/TD&gt;
  &lt;/TR&gt;
  &lt;TR&gt;
    &lt;TD BGCOLOR="#cccccc" ALIGN=CENTER&gt;&lt;FONT FACE=ARIAL SIZE=3 &gt;
      3005P&lt;BR&gt;
      3006P&lt;BR&gt;
      3006W&lt;BR&gt;
      3006Y&lt;BR&gt;
      3009P&lt;BR&gt;
      3009W&lt;BR&gt;
      3009Y&lt;BR&gt;
      3057J&lt;BR&gt;
      3057L&lt;BR&gt;
      3057P&lt;BR&gt;
      3057Y&lt;BR&gt;
      3059J&lt;BR&gt;
      3059L&lt;BR&gt;
      3059P&lt;BR&gt;
      3059Y&lt;BR&gt;&lt;/FONT&gt;
    &lt;/TD&gt;
    &lt;TD BGCOLOR="#cccccc" ALIGN=CENTER&gt;&lt;FONT FACE=ARIAL SIZE=3&gt;
      -&lt;BR&gt;
      89P&lt;BR&gt;
      89W&lt;BR&gt;
      89X&lt;BR&gt;
      89PH&lt;BR&gt;
      76P&lt;BR&gt;
      89XH&lt;BR&gt;
      78SLT&lt;BR&gt;
      78L&amp;nbsp;ALT&lt;BR&gt;
      56P&amp;nbsp;ALT&lt;BR&gt;
      78P&amp;nbsp;ALT&lt;BR&gt;
      T8S&lt;BR&gt;
      78L&lt;BR&gt;
      56P&lt;BR&gt;
      78P&lt;BR&gt;&lt;/FONT&gt;
    &lt;/TD&gt;
    &lt;TD BGCOLOR="#cccccc" ALIGN=CENTER&gt;&lt;FONT FACE=ARIAL SIZE=3&gt;
      -&lt;BR&gt;
      T18/784&lt;BR&gt;
      783&lt;BR&gt;
      781&lt;BR&gt;
      -&lt;BR&gt;
      -&lt;BR&gt;
      -&lt;BR&gt;
      2199&lt;BR&gt;
      1697/1897&lt;BR&gt;
      1680/1880&lt;BR&gt;
      2187&lt;BR&gt;
      -&lt;BR&gt;
      -&lt;BR&gt;
      -&lt;BR&gt;
      -&lt;BR&gt;&lt;/FONT&gt;
    &lt;/TD&gt;
    &lt;TD BGCOLOR="#cccccc" ALIGN=CENTER&gt;&lt;FONT FACE=ARIAL SIZE=3&gt;
      -&lt;BR&gt;
      8035EKP/CT20/RJ-20P&lt;BR&gt;
      -&lt;BR&gt;
      RJ-20X&lt;BR&gt;
      -&lt;BR&gt;
      -&lt;BR&gt;
      -&lt;BR&gt;
      1211L&lt;BR&gt;
      8012EKQ&amp;nbsp;ALT&lt;BR&gt;
      8012EKR&amp;nbsp;ALT&lt;BR&gt;
      1211P&lt;BR&gt;
      8012EKJ&lt;BR&gt;
      8012EKL&lt;BR&gt;
      8012EKQ&lt;BR&gt;
      8012EKR&lt;BR&gt;&lt;/FONT&gt;
    &lt;/TD&gt;
    &lt;TD BGCOLOR="#cccccc" ALIGN=CENTER&gt;&lt;FONT FACE=ARIAL SIZE=3&gt;
      -&lt;BR&gt;
      2101P&lt;BR&gt;
      2101W&lt;BR&gt;
      2101Y&lt;BR&gt;
      -&lt;BR&gt;
      -&lt;BR&gt;
      -&lt;BR&gt;
      -&lt;BR&gt;
      -&lt;BR&gt;
      -&lt;BR&gt;
      -&lt;BR&gt;
      -&lt;BR&gt;
      2102L&lt;BR&gt;
      2102S&lt;BR&gt;
      2102Y&lt;BR&gt;&lt;/FONT&gt;
    &lt;/TD&gt;
    &lt;TD BGCOLOR="#cccccc" ALIGN=CENTER&gt;&lt;FONT FACE=ARIAL SIZE=3&gt;
      -&lt;BR&gt;
      EVMCOG&lt;BR&gt;
      -&lt;BR&gt;
      -&lt;BR&gt;
      -&lt;BR&gt;
      -&lt;BR&gt;
      -&lt;BR&gt;
      -&lt;BR&gt;
      -&lt;BR&gt;
      -&lt;BR&gt;
      -&lt;BR&gt;
      -&lt;BR&gt;
      -&lt;BR&gt;
      -&lt;BR&gt;
      -&lt;BR&gt;&lt;/FONT&gt;
    &lt;/TD&gt;
    &lt;TD BGCOLOR="#cccccc" ALIGN=CENTER&gt;&lt;FONT FACE=ARIAL SIZE=3&gt;
      -&lt;BR&gt;
      43P&lt;BR&gt;
      43W&lt;BR&gt;
      43Y&lt;BR&gt;
      -&lt;BR&gt;
      -&lt;BR&gt;
      -&lt;BR&gt;
      -&lt;BR&gt;
      40L&lt;BR&gt;
      40P&lt;BR&gt;
      40Y&lt;BR&gt;
      70Y-T602&lt;BR&gt;
      70L&lt;BR&gt;
      70P&lt;BR&gt;
      70Y&lt;BR&gt;&lt;/FONT&gt;
    &lt;/TD&gt;
    &lt;TD BGCOLOR="#cccccc" ALIGN=CENTER&gt;&lt;FONT FACE=ARIAL SIZE=3&gt;
      -&lt;BR&gt;
      -&lt;BR&gt;
      -&lt;BR&gt;
      -&lt;BR&gt;
      -&lt;BR&gt;
      -&lt;BR&gt;
      -&lt;BR&gt;
      -&lt;BR&gt;
      RT/RTR12&lt;BR&gt;
      RT/RTR12&lt;BR&gt;
      RT/RTR12&lt;BR&gt;
      -&lt;BR&gt;
      RJ/RJR12&lt;BR&gt;
      RJ/RJR12&lt;BR&gt;
      RJ/RJR12&lt;BR&gt;&lt;/FONT&gt;
    &lt;/TD&gt;
  &lt;/TR&gt;
  &lt;TR&gt;
    &lt;TD COLSPAN=8&gt;&amp;nbsp;
    &lt;/TD&gt;
  &lt;/TR&gt;
  &lt;TR&gt;
    &lt;TD COLSPAN=8&gt;
      &lt;FONT SIZE=4 FACE=ARIAL&gt;&lt;B&gt;SQUARE MULTI-TURN&lt;/B&gt;&lt;/FONT&gt;
    &lt;/TD&gt;
  &lt;/TR&gt;
  &lt;TR&gt;
   &lt;TD ALIGN=CENTER&gt;
      &lt;FONT SIZE=3 FACE=ARIAL&gt;&lt;B&gt;BOURN&lt;/B&gt;&lt;/FONT&gt;
    &lt;/TD&gt;
    &lt;TD ALIGN=CENTER&gt;
      &lt;FONT SIZE=3 FACE=ARIAL&gt;&lt;B&gt;BI&amp;nbsp;TECH&lt;/B&gt;&lt;/FONT&gt;
    &lt;/TD&gt;
    &lt;TD ALIGN=CENTER&gt;
      &lt;FONT SIZE=3 FACE=ARIAL&gt;&lt;B&gt;DALE-VISHAY&lt;/B&gt;&lt;/FONT&gt;
    &lt;/TD&gt;
    &lt;TD ALIGN=CENTER&gt;
      &lt;FONT SIZE=3 FACE=ARIAL&gt;&lt;B&gt;PHILIPS/MEPCO&lt;/B&gt;&lt;/FONT&gt;
    &lt;/TD&gt;
    &lt;TD ALIGN=CENTER&gt;
      &lt;FONT SIZE=3 FACE=ARIAL&gt;&lt;B&gt;MURATA&lt;/B&gt;&lt;/FONT&gt;
    &lt;/TD&gt;
    &lt;TD ALIGN=CENTER&gt;
      &lt;FONT SIZE=3 FACE=ARIAL&gt;&lt;B&gt;PANASONIC&lt;/B&gt;&lt;/FONT&gt;
    &lt;/TD&gt;
    &lt;TD ALIGN=CENTER&gt;
      &lt;FONT SIZE=3 FACE=ARIAL&gt;&lt;B&gt;SPECTROL&lt;/B&gt;&lt;/FONT&gt;
    &lt;/TD&gt;
    &lt;TD ALIGN=CENTER&gt;
      &lt;FONT SIZE=3 FACE=ARIAL&gt;&lt;B&gt;MILSPEC&lt;/B&gt;&lt;/FONT&gt;
    &lt;/TD&gt;
  &lt;/TR&gt;
  &lt;TR&gt;
    &lt;TD BGCOLOR="#cccccc" ALIGN=CENTER&gt;&lt;FONT FACE=ARIAL SIZE=3&gt;
      3250L&lt;BR&gt;
      3250P&lt;BR&gt;
      3250W&lt;BR&gt;
      3250X&lt;BR&gt;
      3252P&lt;BR&gt;
      3252W&lt;BR&gt;
      3252X&lt;BR&gt;
      3260P&lt;BR&gt;
      3260W&lt;BR&gt;
      3260X&lt;BR&gt;
      3262P&lt;BR&gt;
      3262W&lt;BR&gt;
      3262X&lt;BR&gt;
      3266P&lt;BR&gt;
      3266W&lt;BR&gt;
      3266X&lt;BR&gt;
      3290H&lt;BR&gt;
      3290P&lt;BR&gt;
      3290W&lt;BR&gt;
      3292P&lt;BR&gt;
      3292W&lt;BR&gt;
      3292X&lt;BR&gt;
      3296P&lt;BR&gt;
      3296W&lt;BR&gt;
      3296X&lt;BR&gt;
      3296Y&lt;BR&gt;
      3296Z&lt;BR&gt;
      3299P&lt;BR&gt;
      3299W&lt;BR&gt;
      3299X&lt;BR&gt;
      3299Y&lt;BR&gt;
      3299Z&lt;BR&gt;&lt;/FONT&gt;
    &lt;/TD&gt;
    &lt;TD BGCOLOR="#cccccc" ALIGN=CENTER&gt;&lt;FONT FACE=ARIAL SIZE=3&gt;
      -&lt;BR&gt;
      66P&amp;nbsp;ALT&lt;BR&gt;
      66W&amp;nbsp;ALT&lt;BR&gt;
      66X&amp;nbsp;ALT&lt;BR&gt;
      66P&amp;nbsp;ALT&lt;BR&gt;
      66W&amp;nbsp;ALT&lt;BR&gt;
      66X&amp;nbsp;ALT&lt;BR&gt;
      -&lt;BR&gt;
      64W&amp;nbsp;ALT&lt;BR&gt;
      -&lt;BR&gt;
      64P&amp;nbsp;ALT&lt;BR&gt;
      64W&amp;nbsp;ALT&lt;BR&gt;
      64X&amp;nbsp;ALT&lt;BR&gt;
      64P&lt;BR&gt;
      64W&lt;BR&gt;
      64X&lt;BR&gt;
      66X&amp;nbsp;ALT&lt;BR&gt;
      66P&amp;nbsp;ALT&lt;BR&gt;
      66W&amp;nbsp;ALT&lt;BR&gt;
      66P&lt;BR&gt;
      66W&lt;BR&gt;
      66X&lt;BR&gt;
      67P&lt;BR&gt;
      67W&lt;BR&gt;
      67X&lt;BR&gt;
      67Y&lt;BR&gt;
      67Z&lt;BR&gt;
      68P&lt;BR&gt;
      68W&lt;BR&gt;
      68X&lt;BR&gt;
      67Y&amp;nbsp;ALT&lt;BR&gt;
      67Z&amp;nbsp;ALT&lt;BR&gt;&lt;/FONT&gt;
    &lt;/TD&gt;
    &lt;TD BGCOLOR="#cccccc" ALIGN=CENTER&gt;&lt;FONT FACE=ARIAL SIZE=3&gt;
      5050&lt;BR&gt;
      5091&lt;BR&gt;
      5080&lt;BR&gt;
      5087&lt;BR&gt;
      -&lt;BR&gt;
      -&lt;BR&gt;
      -&lt;BR&gt;
      -&lt;BR&gt;
      -&lt;BR&gt;
      -&lt;BR&gt;
      -&lt;BR&gt;
      T63YB&lt;BR&gt;
      T63XB&lt;BR&gt;
      -&lt;BR&gt;
      -&lt;BR&gt;
      -&lt;BR&gt;
      5887&lt;BR&gt;
      5891&lt;BR&gt;
      5880&lt;BR&gt;
      -&lt;BR&gt;
      -&lt;BR&gt;
      -&lt;BR&gt;
      T93Z&lt;BR&gt;
      T93YA&lt;BR&gt;
      T93XA&lt;BR&gt;
      T93YB&lt;BR&gt;
      T93XB&lt;BR&gt;
      -&lt;BR&gt;
      -&lt;BR&gt;
      -&lt;BR&gt;
      -&lt;BR&gt;
      -&lt;BR&gt;&lt;/FONT&gt;
    &lt;/TD&gt;
    &lt;TD BGCOLOR="#cccccc" ALIGN=CENTER&gt;&lt;FONT FACE=ARIAL SIZE=3&gt;
      -&lt;BR&gt;
      -&lt;BR&gt;
      -&lt;BR&gt;
      -&lt;BR&gt;
      -&lt;BR&gt;
      -&lt;BR&gt;
      -&lt;BR&gt;
      -&lt;BR&gt;
      -&lt;BR&gt;
      -&lt;BR&gt;
      8026EKP&lt;BR&gt;
      8026EKW&lt;BR&gt;
      8026EKM&lt;BR&gt;
      8026EKP&lt;BR&gt;
      8026EKB&lt;BR&gt;
      8026EKM&lt;BR&gt;
      1309X&lt;BR&gt;
      1309P&lt;BR&gt;
      1309W&lt;BR&gt;
      8024EKP&lt;BR&gt;
      8024EKW&lt;BR&gt;
      8024EKN&lt;BR&gt;
      RJ-9P/CT9P&lt;BR&gt;
      RJ-9W&lt;BR&gt;
      RJ-9X&lt;BR&gt;
      -&lt;BR&gt;
      -&lt;BR&gt;
      -&lt;BR&gt;
      -&lt;BR&gt;
      -&lt;BR&gt;
      -&lt;BR&gt;
      -&lt;BR&gt;&lt;/FONT&gt;
    &lt;/TD&gt;
    &lt;TD BGCOLOR="#cccccc" ALIGN=CENTER&gt;&lt;FONT FACE=ARIAL SIZE=3&gt;
      -&lt;BR&gt;
      -&lt;BR&gt;
      -&lt;BR&gt;
      -&lt;BR&gt;
      -&lt;BR&gt;
      -&lt;BR&gt;
      -&lt;BR&gt;
      -&lt;BR&gt;
      -&lt;BR&gt;
      -&lt;BR&gt;
      3103P&lt;BR&gt;
      3103Y&lt;BR&gt;
      3103Z&lt;BR&gt;
      3103P&lt;BR&gt;
      3103Y&lt;BR&gt;
      3103Z&lt;BR&gt;
      -&lt;BR&gt;
      -&lt;BR&gt;
      -&lt;BR&gt;
      -&lt;BR&gt;
      -&lt;BR&gt;
      -&lt;BR&gt;
      3105P/3106P&lt;BR&gt;
      3105W/3106W&lt;BR&gt;
      3105X/3106X&lt;BR&gt;
      3105Y/3106Y&lt;BR&gt;
      3105Z/3105Z&lt;BR&gt;
      3102P&lt;BR&gt;
      3102W&lt;BR&gt;
      3102X&lt;BR&gt;
      3102Y&lt;BR&gt;
      3102Z&lt;BR&gt;&lt;/FONT&gt;
    &lt;/TD&gt;
    &lt;TD BGCOLOR="#cccccc" ALIGN=CENTER&gt;&lt;FONT FACE=ARIAL SIZE=3&gt;
      -&lt;BR&gt;
      -&lt;BR&gt;
      -&lt;BR&gt;
      -&lt;BR&gt;
      -&lt;BR&gt;
      -&lt;BR&gt;
      -&lt;BR&gt;
      -&lt;BR&gt;
      -&lt;BR&gt;
      -&lt;BR&gt;
      -&lt;BR&gt;
      -&lt;BR&gt;
      -&lt;BR&gt;
      -&lt;BR&gt;
      -&lt;BR&gt;
      -&lt;BR&gt;
      -&lt;BR&gt;
      -&lt;BR&gt;
      -&lt;BR&gt;
      -&lt;BR&gt;
      -&lt;BR&gt;
      -&lt;BR&gt;
      EVMCBG&lt;BR&gt;
      EVMCCG&lt;BR&gt;
      -&lt;BR&gt;
      -&lt;BR&gt;
      -&lt;BR&gt;
      -&lt;BR&gt;
      -&lt;BR&gt;
      -&lt;BR&gt;
      -&lt;BR&gt;
      -&lt;BR&gt;&lt;/FONT&gt;
    &lt;/TD&gt;
    &lt;TD BGCOLOR="#cccccc" ALIGN=CENTER&gt;&lt;FONT FACE=ARIAL SIZE=3&gt;
      55-1-X&lt;BR&gt;
      55-4-X&lt;BR&gt;
      55-3-X&lt;BR&gt;
      55-2-X&lt;BR&gt;
      -&lt;BR&gt;
      -&lt;BR&gt;
      -&lt;BR&gt;
      -&lt;BR&gt;
      -&lt;BR&gt;
      -&lt;BR&gt;
      -&lt;BR&gt;
      -&lt;BR&gt;
      -&lt;BR&gt;
      -&lt;BR&gt;
      -&lt;BR&gt;
      -&lt;BR&gt;
      50-2-X&lt;BR&gt;
      50-4-X&lt;BR&gt;
      50-3-X&lt;BR&gt;
      -&lt;BR&gt;
      -&lt;BR&gt;
      -&lt;BR&gt;
      64P&lt;BR&gt;
      64W&lt;BR&gt;
      64X&lt;BR&gt;
      64Y&lt;BR&gt;
      64Z&lt;BR&gt;
      -&lt;BR&gt;
      -&lt;BR&gt;
      -&lt;BR&gt;
      -&lt;BR&gt;
      -&lt;BR&gt;&lt;/FONT&gt;
    &lt;/TD&gt;
    &lt;TD BGCOLOR="#cccccc" ALIGN=CENTER&gt;&lt;FONT FACE=ARIAL SIZE=3&gt;
      RT/RTR22&lt;BR&gt;
      RT/RTR22&lt;BR&gt;
      RT/RTR22&lt;BR&gt;
      RT/RTR22&lt;BR&gt;
      RJ/RJR22&lt;BR&gt;
      RJ/RJR22&lt;BR&gt;
      RJ/RJR22&lt;BR&gt;
      RT/RTR26&lt;BR&gt;
      RT/RTR26&lt;BR&gt;
      RT/RTR26&lt;BR&gt;
      RJ/RJR26&lt;BR&gt;
      RJ/RJR26&lt;BR&gt;
      RJ/RJR26&lt;BR&gt;
      RJ/RJR26&lt;BR&gt;
      RJ/RJR26&lt;BR&gt;
      RJ/RJR26&lt;BR&gt;
      RT/RTR24&lt;BR&gt;
      RT/RTR24&lt;BR&gt;
      RT/RTR24&lt;BR&gt;
      RJ/RJR24&lt;BR&gt;
      RJ/RJR24&lt;BR&gt;
      RJ/RJR24&lt;BR&gt;
      RJ/RJR24&lt;BR&gt;
      RJ/RJR24&lt;BR&gt;
      RJ/RJR24&lt;BR&gt;
      -&lt;BR&gt;
      -&lt;BR&gt;
      -&lt;BR&gt;
      -&lt;BR&gt;
      -&lt;BR&gt;
      -&lt;BR&gt;
      -&lt;BR&gt;&lt;/FONT&gt;
    &lt;/TD&gt;
  &lt;/TR&gt;
  &lt;TR&gt;
    &lt;TD COLSPAN=8&gt;&amp;nbsp;
    &lt;/TD&gt;
  &lt;/TR&gt;
  &lt;TR&gt;
    &lt;TD COLSPAN=8&gt;
      &lt;FONT SIZE=4 FACE=ARIAL&gt;&lt;B&gt;SINGLE TURN&lt;/B&gt;&lt;/FONT&gt;
    &lt;/TD&gt;
  &lt;/TR&gt;
  &lt;TR&gt;
    &lt;TD ALIGN=CENTER&gt;
      &lt;FONT SIZE=3 FACE=ARIAL&gt;&lt;B&gt;BOURN&lt;/B&gt;&lt;/FONT&gt;
    &lt;/TD&gt;
    &lt;TD ALIGN=CENTER&gt;
      &lt;FONT SIZE=3 FACE=ARIAL&gt;&lt;B&gt;BI&amp;nbsp;TECH&lt;/B&gt;&lt;/FONT&gt;
    &lt;/TD&gt;
    &lt;TD ALIGN=CENTER&gt;
      &lt;FONT SIZE=3 FACE=ARIAL&gt;&lt;B&gt;DALE-VISHAY&lt;/B&gt;&lt;/FONT&gt;
    &lt;/TD&gt;
    &lt;TD ALIGN=CENTER&gt;
      &lt;FONT SIZE=3 FACE=ARIAL&gt;&lt;B&gt;PHILIPS/MEPCO&lt;/B&gt;&lt;/FONT&gt;
    &lt;/TD&gt;
    &lt;TD ALIGN=CENTER&gt;
      &lt;FONT SIZE=3 FACE=ARIAL&gt;&lt;B&gt;MURATA&lt;/B&gt;&lt;/FONT&gt;
    &lt;/TD&gt;
    &lt;TD ALIGN=CENTER&gt;
      &lt;FONT SIZE=3 FACE=ARIAL&gt;&lt;B&gt;PANASONIC&lt;/B&gt;&lt;/FONT&gt;
    &lt;/TD&gt;
    &lt;TD ALIGN=CENTER&gt;
      &lt;FONT SIZE=3 FACE=ARIAL&gt;&lt;B&gt;SPECTROL&lt;/B&gt;&lt;/FONT&gt;
    &lt;/TD&gt;
    &lt;TD ALIGN=CENTER&gt;
      &lt;FONT SIZE=3 FACE=ARIAL&gt;&lt;B&gt;MILSPEC&lt;/B&gt;&lt;/FONT&gt;
    &lt;/TD&gt;
  &lt;/TR&gt;
  &lt;TR&gt;
    &lt;TD BGCOLOR="#cccccc" ALIGN=CENTER&gt;&lt;FONT FACE=ARIAL SIZE=3&gt;
      3323P&lt;BR&gt;
      3323S&lt;BR&gt;
      3323W&lt;BR&gt;
      3329H&lt;BR&gt;
      3329P&lt;BR&gt;
      3329W&lt;BR&gt;
      3339H&lt;BR&gt;
      3339P&lt;BR&gt;
      3339W&lt;BR&gt;
      3352E&lt;BR&gt;
      3352H&lt;BR&gt;
      3352K&lt;BR&gt;
      3352P&lt;BR&gt;
      3352T&lt;BR&gt;
      3352V&lt;BR&gt;
      3352W&lt;BR&gt;
      3362H&lt;BR&gt;
      3362M&lt;BR&gt;
      3362P&lt;BR&gt;
      3362R&lt;BR&gt;
      3362S&lt;BR&gt;
      3362U&lt;BR&gt;
      3362W&lt;BR&gt;
      3362X&lt;BR&gt;
      3386B&lt;BR&gt;
      3386C&lt;BR&gt;
      3386F&lt;BR&gt;
      3386H&lt;BR&gt;
      3386K&lt;BR&gt;
      3386M&lt;BR&gt;
      3386P&lt;BR&gt;
      3386S&lt;BR&gt;
      3386W&lt;BR&gt;
      3386X&lt;BR&gt;&lt;/FONT&gt;
    &lt;/TD&gt;
    &lt;TD BGCOLOR="#cccccc" ALIGN=CENTER&gt;&lt;FONT FACE=ARIAL SIZE=3&gt;
      25P&lt;BR&gt;
      25S&lt;BR&gt;
      25RX&lt;BR&gt;
      82P&lt;BR&gt;
      82M&lt;BR&gt;
      82PA&lt;BR&gt;
      -&lt;BR&gt;
      -&lt;BR&gt;
      -&lt;BR&gt;
      91E&lt;BR&gt;
      91X&lt;BR&gt;
      91T&lt;BR&gt;
      91B&lt;BR&gt;
      91A&lt;BR&gt;
      91V&lt;BR&gt;
      91W&lt;BR&gt;
      25W&lt;BR&gt;
      25V&lt;BR&gt;
      25P&lt;BR&gt;
      -&lt;BR&gt;
      25S&lt;BR&gt;
      25U&lt;BR&gt;
      25RX&lt;BR&gt;
      25X&lt;BR&gt;
      72XW&lt;BR&gt;
      72XL&lt;BR&gt;
      72PM&lt;BR&gt;
      72RX&lt;BR&gt;
      -&lt;BR&gt;
      72PX&lt;BR&gt;
      72P&lt;BR&gt;
      72RXW&lt;BR&gt;
      72RXL&lt;BR&gt;
      72X&lt;BR&gt;&lt;/FONT&gt;
    &lt;/TD&gt;
    &lt;TD BGCOLOR="#cccccc" ALIGN=CENTER&gt;&lt;FONT FACE=ARIAL SIZE=3&gt;
      -&lt;BR&gt;
      -&lt;BR&gt;
      -&lt;BR&gt;
      T7YB&lt;BR&gt;
      T7YA&lt;BR&gt;
      -&lt;BR&gt;
      -&lt;BR&gt;
      -&lt;BR&gt;
      -&lt;BR&gt;
      -&lt;BR&gt;
      -&lt;BR&gt;
      -&lt;BR&gt;
      -&lt;BR&gt;
      -&lt;BR&gt;
      -&lt;BR&gt;
      -&lt;BR&gt;
      -&lt;BR&gt;
      TXD&lt;BR&gt;
      TYA&lt;BR&gt;
      TYP&lt;BR&gt;
      -&lt;BR&gt;
      TYD&lt;BR&gt;
      TX&lt;BR&gt;
      -&lt;BR&gt;
      150SX&lt;BR&gt;
      100SX&lt;BR&gt;
      102T&lt;BR&gt;
      101S&lt;BR&gt;
      190T&lt;BR&gt;
      150TX&lt;BR&gt;
      101&lt;BR&gt;
      -&lt;BR&gt;
      -&lt;BR&gt;
      101SX&lt;BR&gt;&lt;/FONT&gt;
    &lt;/TD&gt;
    &lt;TD BGCOLOR="#cccccc" ALIGN=CENTER&gt;&lt;FONT FACE=ARIAL SIZE=3&gt;
      ET6P&lt;BR&gt;
      ET6S&lt;BR&gt;
      ET6X&lt;BR&gt;
      RJ-6W/8014EMW&lt;BR&gt;
      RJ-6P/8014EMP&lt;BR&gt;
      RJ-6X/8014EMX&lt;BR&gt;
      TM7W&lt;BR&gt;
      TM7P&lt;BR&gt;
      TM7X&lt;BR&gt;
      -&lt;BR&gt;
      8017SMS&lt;BR&gt;
      -&lt;BR&gt;
      8017SMB&lt;BR&gt;
      8017SMA&lt;BR&gt;
      -&lt;BR&gt;
      -&lt;BR&gt;
      CT-6W&lt;BR&gt;
      CT-6H&lt;BR&gt;
      CT-6P&lt;BR&gt;
      CT-6R&lt;BR&gt;
      -&lt;BR&gt;
      CT-6V&lt;BR&gt;
      CT-6X&lt;BR&gt;
      -&lt;BR&gt;
      -&lt;BR&gt;
      8038EKV&lt;BR&gt;
      -&lt;BR&gt;
      8038EKX&lt;BR&gt;
      -&lt;BR&gt;
      -&lt;BR&gt;
      8038EKP&lt;BR&gt;
      8038EKZ&lt;BR&gt;
      8038EKW&lt;BR&gt;
      -&lt;BR&gt;&lt;/FONT&gt;
    &lt;/TD&gt;
    &lt;TD BGCOLOR="#cccccc" ALIGN=CENTER&gt;&lt;FONT FACE=ARIAL SIZE=3&gt;
      -&lt;BR&gt;
      -&lt;BR&gt;
      -&lt;BR&gt;
      3321H&lt;BR&gt;
      3321P&lt;BR&gt;
      3321N&lt;BR&gt;
      1102H&lt;BR&gt;
      1102P&lt;BR&gt;
      1102T&lt;BR&gt;
      RVA0911V304A&lt;BR&gt;
      -&lt;BR&gt;
      RVA0911H413A&lt;BR&gt;
      RVG0707V100A&lt;BR&gt;
      RVA0607V(H)306A&lt;BR&gt;
      RVA1214H213A&lt;BR&gt;
      -&lt;BR&gt;
      -&lt;BR&gt;
      -&lt;BR&gt;
      -&lt;BR&gt;
      -&lt;BR&gt;
      -&lt;BR&gt;
      -&lt;BR&gt;
      -&lt;BR&gt;
      -&lt;BR&gt;
      3104B&lt;BR&gt;
      3104C&lt;BR&gt;
      3104F&lt;BR&gt;
      3104H&lt;BR&gt;
      -&lt;BR&gt;
      3104M&lt;BR&gt;
      3104P&lt;BR&gt;
      3104S&lt;BR&gt;
      3104W&lt;BR&gt;
      3104X&lt;BR&gt;&lt;/FONT&gt;
    &lt;/TD&gt;
    &lt;TD BGCOLOR="#cccccc" ALIGN=CENTER&gt;&lt;FONT FACE=ARIAL SIZE=3&gt;
      EVMQ0G&lt;BR&gt;
      EVMQIG&lt;BR&gt;
      EVMQ3G&lt;BR&gt;
      EVMS0G&lt;BR&gt;
      EVMQ0G&lt;BR&gt;
      EVMG0G&lt;BR&gt;
      -&lt;BR&gt;
      -&lt;BR&gt;
      -&lt;BR&gt;
      EVMK4GA00B&lt;BR&gt;
      EVM30GA00B&lt;BR&gt;
      EVMK0GA00B&lt;BR&gt;
      EVM38GA00B&lt;BR&gt;
      EVMB6&lt;BR&gt;
      EVLQ0&lt;BR&gt;
      -&lt;BR&gt;
      EVMMSG&lt;BR&gt;
      EVMMBG&lt;BR&gt;
      EVMMAG&lt;BR&gt;
      -&lt;BR&gt;
      -&lt;BR&gt;
      EVMMCS&lt;BR&gt;
      -&lt;BR&gt;
      -&lt;BR&gt;
      -&lt;BR&gt;
      -&lt;BR&gt;
      -&lt;BR&gt;
      EVMM1&lt;BR&gt;
      -&lt;BR&gt;
      -&lt;BR&gt;
      EVMM0&lt;BR&gt;
      -&lt;BR&gt;
      -&lt;BR&gt;
      EVMM3&lt;BR&gt;&lt;/FONT&gt;
    &lt;/TD&gt;
    &lt;TD BGCOLOR="#cccccc" ALIGN=CENTER&gt;&lt;FONT FACE=ARIAL SIZE=3&gt;
      -&lt;BR&gt;
      -&lt;BR&gt;
      -&lt;BR&gt;
      62-3-1&lt;BR&gt;
      62-1-2&lt;BR&gt;
      -&lt;BR&gt;
      -&lt;BR&gt;
      -&lt;BR&gt;
      -&lt;BR&gt;
      -&lt;BR&gt;
      -&lt;BR&gt;
      -&lt;BR&gt;
      -&lt;BR&gt;
      -&lt;BR&gt;
      -&lt;BR&gt;
      -&lt;BR&gt;
      67R&lt;BR&gt;
      -&lt;BR&gt;
      67P&lt;BR&gt;
      -&lt;BR&gt;
      -&lt;BR&gt;
      -&lt;BR&gt;
      -&lt;BR&gt;
      67X&lt;BR&gt;
      63V&lt;BR&gt;
      63S&lt;BR&gt;
      63M&lt;BR&gt;
      -&lt;BR&gt;
      -&lt;BR&gt;
      63H&lt;BR&gt;
      63P&lt;BR&gt;
      -&lt;BR&gt;
      -&lt;BR&gt;
      63X&lt;BR&gt;&lt;/FONT&gt;
    &lt;/TD&gt;
    &lt;TD BGCOLOR="#cccccc" ALIGN=CENTER&gt;&lt;FONT FACE=ARIAL SIZE=3&gt;
      -&lt;BR&gt;
      -&lt;BR&gt;
      -&lt;BR&gt;
      RJ/RJR50&lt;BR&gt;
      RJ/RJR50&lt;BR&gt;
      RJ/RJR50&lt;BR&gt;
      -&lt;BR&gt;
      -&lt;BR&gt;
      -&lt;BR&gt;
      -&lt;BR&gt;
      -&lt;BR&gt;
      -&lt;BR&gt;
      -&lt;BR&gt;
      -&lt;BR&gt;
      -&lt;BR&gt;
      -&lt;BR&gt;
      -&lt;BR&gt;
      -&lt;BR&gt;
      -&lt;BR&gt;
      -&lt;BR&gt;
      -&lt;BR&gt;
      -&lt;BR&gt;
      -&lt;BR&gt;
      -&lt;BR&gt;
      -&lt;BR&gt;
      -&lt;BR&gt;
      -&lt;BR&gt;
      -&lt;BR&gt;
      -&lt;BR&gt;
      -&lt;BR&gt;
      -&lt;BR&gt;
      -&lt;BR&gt;
      -&lt;BR&gt;
      -&lt;BR&gt;&lt;/FONT&gt;
    &lt;/TD&gt;
  &lt;/TR&gt;
&lt;/TABLE&gt;
&lt;P&gt;&amp;nbsp;&lt;P&gt;
&lt;TABLE BORDER=0 CELLSPACING=1 CELLPADDING=3&gt;
  &lt;TR&gt;
    &lt;TD COLSPAN=7&gt;
      &lt;FONT color="#0000FF" SIZE=4 FACE=ARIAL&gt;&lt;B&gt;SMD TRIM-POT CROSS REFERENCE&lt;/B&gt;&lt;/FONT&gt;
      &lt;P&gt;
      &lt;FONT SIZE=4 FACE=ARIAL&gt;&lt;B&gt;MULTI-TURN&lt;/B&gt;&lt;/FONT&gt;
    &lt;/TD&gt;
  &lt;/TR&gt;
  &lt;TR&gt;
    &lt;TD&gt;
      &lt;FONT SIZE=3 FACE=ARIAL&gt;&lt;B&gt;BOURNS&lt;/B&gt;&lt;/FONT&gt;
    &lt;/TD&gt;
    &lt;TD&gt;
      &lt;FONT SIZE=3 FACE=ARIAL&gt;&lt;B&gt;BI&amp;nbsp;TECH&lt;/B&gt;&lt;/FONT&gt;
    &lt;/TD&gt;
    &lt;TD&gt;
      &lt;FONT SIZE=3 FACE=ARIAL&gt;&lt;B&gt;DALE-VISHAY&lt;/B&gt;&lt;/FONT&gt;
    &lt;/TD&gt;
    &lt;TD&gt;
      &lt;FONT SIZE=3 FACE=ARIAL&gt;&lt;B&gt;PHILIPS/MEPCO&lt;/B&gt;&lt;/FONT&gt;
    &lt;/TD&gt;
    &lt;TD&gt;
      &lt;FONT SIZE=3 FACE=ARIAL&gt;&lt;B&gt;PANASONIC&lt;/B&gt;&lt;/FONT&gt;
    &lt;/TD&gt;
    &lt;TD&gt;
      &lt;FONT SIZE=3 FACE=ARIAL&gt;&lt;B&gt;TOCOS&lt;/B&gt;&lt;/FONT&gt;
    &lt;/TD&gt;
    &lt;TD&gt;
      &lt;FONT SIZE=3 FACE=ARIAL&gt;&lt;B&gt;AUX/KYOCERA&lt;/B&gt;&lt;/FONT&gt;
    &lt;/TD&gt;
  &lt;/TR&gt;
  &lt;TR&gt;
    &lt;TD BGCOLOR="#cccccc" ALIGN=CENTER&gt;&lt;FONT FACE=ARIAL SIZE=3&gt;
      3224G&lt;BR&gt;
      3224J&lt;BR&gt;
      3224W&lt;BR&gt;
      3269P&lt;BR&gt;
      3269W&lt;BR&gt;
      3269X&lt;BR&gt;&lt;/FONT&gt;
    &lt;/TD&gt;
    &lt;TD BGCOLOR="#cccccc" ALIGN=CENTER&gt;&lt;FONT FACE=ARIAL SIZE=3&gt;
      44G&lt;BR&gt;
      44J&lt;BR&gt;
      44W&lt;BR&gt;
      84P&lt;BR&gt;
      84W&lt;BR&gt;
      84X&lt;BR&gt;&lt;/FONT&gt;
    &lt;/TD&gt;
    &lt;TD BGCOLOR="#cccccc" ALIGN=CENTER&gt;&lt;FONT FACE=ARIAL SIZE=3&gt;
      -&lt;BR&gt;
      -&lt;BR&gt;
      -&lt;BR&gt;
      ST63Z&lt;BR&gt;
      ST63Y&lt;BR&gt;
      -&lt;BR&gt;&lt;/FONT&gt;
    &lt;/TD&gt;
    &lt;TD BGCOLOR="#cccccc" ALIGN=CENTER&gt;&lt;FONT FACE=ARIAL SIZE=3&gt;
      -&lt;BR&gt;
      -&lt;BR&gt;
      -&lt;BR&gt;
      ST5P&lt;BR&gt;
      ST5W&lt;BR&gt;
      ST5X&lt;BR&gt;&lt;/FONT&gt;
    &lt;/TD&gt;
    &lt;TD BGCOLOR="#cccccc" ALIGN=CENTER&gt;&lt;FONT FACE=ARIAL SIZE=3&gt;
      -&lt;BR&gt;
      -&lt;BR&gt;
      -&lt;BR&gt;
      -&lt;BR&gt;
      -&lt;BR&gt;
      -&lt;BR&gt;&lt;/FONT&gt;
    &lt;/TD&gt;
    &lt;TD BGCOLOR="#cccccc" ALIGN=CENTER&gt;&lt;FONT FACE=ARIAL SIZE=3&gt;
      -&lt;BR&gt;
      -&lt;BR&gt;
      -&lt;BR&gt;
      -&lt;BR&gt;
      -&lt;BR&gt;
      -&lt;BR&gt;&lt;/FONT&gt;
    &lt;/TD&gt;
    &lt;TD BGCOLOR="#cccccc" ALIGN=CENTER&gt;&lt;FONT FACE=ARIAL SIZE=3&gt;
      -&lt;BR&gt;
      -&lt;BR&gt;
      -&lt;BR&gt;
      -&lt;BR&gt;
      -&lt;BR&gt;
      -&lt;BR&gt;&lt;/FONT&gt;
    &lt;/TD&gt;
  &lt;/TR&gt;
  &lt;TR&gt;
    &lt;TD COLSPAN=7&gt;&amp;nbsp;
    &lt;/TD&gt;
  &lt;/TR&gt;
  &lt;TR&gt;
    &lt;TD COLSPAN=7&gt;
      &lt;FONT SIZE=4 FACE=ARIAL&gt;&lt;B&gt;SINGLE TURN&lt;/B&gt;&lt;/FONT&gt;
    &lt;/TD&gt;
  &lt;/TR&gt;
  &lt;TR&gt;
    &lt;TD&gt;
      &lt;FONT SIZE=3 FACE=ARIAL&gt;&lt;B&gt;BOURNS&lt;/B&gt;&lt;/FONT&gt;
    &lt;/TD&gt;
    &lt;TD&gt;
      &lt;FONT SIZE=3 FACE=ARIAL&gt;&lt;B&gt;BI&amp;nbsp;TECH&lt;/B&gt;&lt;/FONT&gt;
    &lt;/TD&gt;
    &lt;TD&gt;
      &lt;FONT SIZE=3 FACE=ARIAL&gt;&lt;B&gt;DALE-VISHAY&lt;/B&gt;&lt;/FONT&gt;
    &lt;/TD&gt;
    &lt;TD&gt;
      &lt;FONT SIZE=3 FACE=ARIAL&gt;&lt;B&gt;PHILIPS/MEPCO&lt;/B&gt;&lt;/FONT&gt;
    &lt;/TD&gt;
    &lt;TD&gt;
      &lt;FONT SIZE=3 FACE=ARIAL&gt;&lt;B&gt;PANASONIC&lt;/B&gt;&lt;/FONT&gt;
    &lt;/TD&gt;
    &lt;TD&gt;
      &lt;FONT SIZE=3 FACE=ARIAL&gt;&lt;B&gt;TOCOS&lt;/B&gt;&lt;/FONT&gt;
    &lt;/TD&gt;
    &lt;TD&gt;
      &lt;FONT SIZE=3 FACE=ARIAL&gt;&lt;B&gt;AUX/KYOCERA&lt;/B&gt;&lt;/FONT&gt;
    &lt;/TD&gt;
  &lt;/TR&gt;
  &lt;TR&gt;
    &lt;TD BGCOLOR="#cccccc" ALIGN=CENTER&gt;&lt;FONT FACE=ARIAL SIZE=3&gt;
      3314G&lt;BR&gt;
      3314J&lt;BR&gt;
      3364A/B&lt;BR&gt;
      3364C/D&lt;BR&gt;
      3364W/X&lt;BR&gt;
      3313G&lt;BR&gt;
      3313J&lt;BR&gt;&lt;/FONT&gt;
    &lt;/TD&gt;
    &lt;TD BGCOLOR="#cccccc" ALIGN=CENTER&gt;&lt;FONT FACE=ARIAL SIZE=3&gt;
      23B&lt;BR&gt;
      23A&lt;BR&gt;
      21X&lt;BR&gt;
      21W&lt;BR&gt;
      -&lt;BR&gt;
      22B&lt;BR&gt;
      22A&lt;BR&gt;&lt;/FONT&gt;
    &lt;/TD&gt;
    &lt;TD BGCOLOR="#cccccc" ALIGN=CENTER&gt;&lt;FONT FACE=ARIAL SIZE=3&gt;
      ST5YL/ST53YL&lt;BR&gt;
      ST5YJ/5T53YJ&lt;BR&gt;
      ST-23A&lt;BR&gt;
      ST-22B&lt;BR&gt;
      ST-22&lt;BR&gt;
      -&lt;BR&gt;
      -&lt;BR&gt;&lt;/FONT&gt;
    &lt;/TD&gt;
    &lt;TD BGCOLOR="#cccccc" ALIGN=CENTER&gt;&lt;FONT FACE=ARIAL SIZE=3&gt;
      ST-4B&lt;BR&gt;
      ST-4A&lt;BR&gt;
      -&lt;BR&gt;
      -&lt;BR&gt;
      -&lt;BR&gt;
      ST-3B&lt;BR&gt;
      ST-3A&lt;BR&gt;&lt;/FONT&gt;
    &lt;/TD&gt;
    &lt;TD BGCOLOR="#cccccc" ALIGN=CENTER&gt;&lt;FONT FACE=ARIAL SIZE=3&gt;
      -&lt;BR&gt;
      EVM-6YS&lt;BR&gt;
      EVM-1E&lt;BR&gt;
      EVM-1G&lt;BR&gt;
      EVM-1D&lt;BR&gt;
      -&lt;BR&gt;
      -&lt;BR&gt;&lt;/FONT&gt;
    &lt;/TD&gt;
    &lt;TD BGCOLOR="#cccccc" ALIGN=CENTER&gt;&lt;FONT FACE=ARIAL SIZE=3&gt;
      G4B&lt;BR&gt;
      G4A&lt;BR&gt;
      TR04-3S1&lt;BR&gt;
      TRG04-2S1&lt;BR&gt;
      -&lt;BR&gt;
      -&lt;BR&gt;
      -&lt;BR&gt;&lt;/FONT&gt;
    &lt;/TD&gt;
    &lt;TD BGCOLOR="#cccccc" ALIGN=CENTER&gt;&lt;FONT FACE=ARIAL SIZE=3&gt;
      -&lt;BR&gt;
      -&lt;BR&gt;
      DVR-43A&lt;BR&gt;
      CVR-42C&lt;BR&gt;
      CVR-42A/C&lt;BR&gt;
      -&lt;BR&gt;
      -&lt;BR&gt;&lt;/FONT&gt;
    &lt;/TD&gt;
  &lt;/TR&gt;
&lt;/TABLE&gt;
&lt;P&gt;
&lt;FONT SIZE=4 FACE=ARIAL&gt;&lt;B&gt;ALT =&amp;nbsp;ALTERNATE&lt;/B&gt;&lt;/FONT&gt;
&lt;P&gt;

&amp;nbsp;
&lt;P&gt;
&lt;/td&gt;
&lt;/tr&gt;
&lt;/table&gt;</description>
<packages>
<package name="M1206">
<description>&lt;b&gt;RESISTOR&lt;/b&gt;&lt;p&gt;
MELF 0.25 W</description>
<wire x1="-2.473" y1="1.483" x2="2.473" y2="1.483" width="0.0508" layer="39"/>
<wire x1="2.473" y1="-1.483" x2="-2.473" y2="-1.483" width="0.0508" layer="39"/>
<wire x1="-2.473" y1="-1.483" x2="-2.473" y2="1.483" width="0.0508" layer="39"/>
<wire x1="2.473" y1="1.483" x2="2.473" y2="-1.483" width="0.0508" layer="39"/>
<wire x1="1.143" y1="0.8382" x2="-1.143" y2="0.8382" width="0.1524" layer="51"/>
<wire x1="1.143" y1="-0.8382" x2="-1.143" y2="-0.8382" width="0.1524" layer="51"/>
<smd name="1" x="-1.4" y="0" dx="1.6" dy="2" layer="1"/>
<smd name="2" x="1.4" y="0" dx="1.6" dy="2" layer="1"/>
<text x="-1.27" y="1.27" size="1.27" layer="25">&gt;NAME</text>
<text x="-1.27" y="-2.54" size="1.27" layer="27">&gt;VALUE</text>
<rectangle x1="-1.7018" y1="-0.9144" x2="-1.1176" y2="0.9144" layer="51"/>
<rectangle x1="1.1176" y1="-0.9144" x2="1.7018" y2="0.9144" layer="51"/>
<rectangle x1="-0.3" y1="-0.8001" x2="0.3" y2="0.8001" layer="35"/>
</package>
</packages>
</library>
<library name="v-reg3">
<description>&lt;b&gt;Voltage Regulators&lt;/b&gt;&lt;p&gt;
&lt;author&gt;Created by librarian@cadsoft.de&lt;/author&gt;</description>
<packages>
<package name="SO-08">
<description>&lt;B&gt;Small Outline Narrow Plastic Gull Wing&lt;/B&gt;&lt;p&gt;
150-mil body, package type SN</description>
<wire x1="-2.9" y1="3.9" x2="2.9" y2="3.9" width="0.1998" layer="39"/>
<wire x1="2.9" y1="3.9" x2="2.9" y2="-3.9" width="0.1998" layer="39"/>
<wire x1="2.9" y1="-3.9" x2="-2.9" y2="-3.9" width="0.1998" layer="39"/>
<wire x1="-2.9" y1="-3.9" x2="-2.9" y2="3.9" width="0.1998" layer="39"/>
<wire x1="2.4" y1="1.9" x2="2.4" y2="-1.4" width="0.2032" layer="51"/>
<wire x1="2.4" y1="-1.4" x2="2.4" y2="-1.9" width="0.2032" layer="51"/>
<wire x1="2.4" y1="-1.9" x2="-2.4" y2="-1.9" width="0.2032" layer="51"/>
<wire x1="-2.4" y1="-1.9" x2="-2.4" y2="-1.4" width="0.2032" layer="51"/>
<wire x1="-2.4" y1="-1.4" x2="-2.4" y2="1.9" width="0.2032" layer="51"/>
<wire x1="-2.4" y1="1.9" x2="2.4" y2="1.9" width="0.2032" layer="51"/>
<wire x1="2.4" y1="-1.4" x2="-2.4" y2="-1.4" width="0.2032" layer="51"/>
<smd name="2" x="-0.635" y="-2.6" dx="0.6" dy="2.2" layer="1"/>
<smd name="7" x="-0.635" y="2.6" dx="0.6" dy="2.2" layer="1"/>
<smd name="1" x="-1.905" y="-2.6" dx="0.6" dy="2.2" layer="1"/>
<smd name="3" x="0.635" y="-2.6" dx="0.6" dy="2.2" layer="1"/>
<smd name="4" x="1.905" y="-2.6" dx="0.6" dy="2.2" layer="1"/>
<smd name="8" x="-1.905" y="2.6" dx="0.6" dy="2.2" layer="1"/>
<smd name="6" x="0.635" y="2.6" dx="0.6" dy="2.2" layer="1"/>
<smd name="5" x="1.905" y="2.6" dx="0.6" dy="2.2" layer="1"/>
<text x="-2.667" y="-1.905" size="1.27" layer="25" rot="R90">&gt;NAME</text>
<text x="3.937" y="-1.905" size="1.27" layer="27" rot="R90">&gt;VALUE</text>
<text x="-1.905" y="-0.635" size="0.4064" layer="48">IPC SO8</text>
<text x="-1.905" y="0.365" size="0.3048" layer="48">JEDEC MS-012 AA</text>
<rectangle x1="-2.1501" y1="-3.1001" x2="-1.6599" y2="-2" layer="51"/>
<rectangle x1="-0.8801" y1="-3.1001" x2="-0.3899" y2="-2" layer="51"/>
<rectangle x1="0.3899" y1="-3.1001" x2="0.8801" y2="-2" layer="51"/>
<rectangle x1="1.6599" y1="-3.1001" x2="2.1501" y2="-2" layer="51"/>
<rectangle x1="1.6599" y1="2" x2="2.1501" y2="3.1001" layer="51"/>
<rectangle x1="0.3899" y1="2" x2="0.8801" y2="3.1001" layer="51"/>
<rectangle x1="-0.8801" y1="2" x2="-0.3899" y2="3.1001" layer="51"/>
<rectangle x1="-2.1501" y1="2" x2="-1.6599" y2="3.1001" layer="51"/>
<rectangle x1="-1" y1="-1" x2="1" y2="1" layer="35"/>
</package>
</packages>
</library>
<library name="semicon-smd-ipc">
<description>&lt;b&gt;IPC Standard SMD Semiconductors&lt;/b&gt;&lt;p&gt;
A few devices defined according to the IPC standard.&lt;p&gt;
Based on:&lt;p&gt;
IPC-SM-782&lt;br&gt;
IRevision A, August 1993&lt;br&gt;
Includes Amendment 1, October 1996&lt;p&gt;
&lt;author&gt;Created by librarian@cadsoft.de&lt;/author&gt;</description>
<packages>
<package name="SOT89">
<description>&lt;b&gt;Small Outline Transistor&lt;/b&gt;</description>
<wire x1="2.235" y1="-1.245" x2="-2.235" y2="-1.245" width="0.127" layer="51"/>
<wire x1="2.235" y1="1.219" x2="2.235" y2="-1.245" width="0.127" layer="51"/>
<wire x1="-2.235" y1="-1.245" x2="-2.235" y2="1.219" width="0.127" layer="51"/>
<wire x1="-2.235" y1="1.219" x2="2.235" y2="1.219" width="0.127" layer="51"/>
<wire x1="-0.7874" y1="1.5748" x2="-0.3556" y2="2.0066" width="0.1998" layer="51"/>
<wire x1="-0.3556" y1="2.0066" x2="0.3556" y2="2.0066" width="0.1998" layer="51"/>
<wire x1="0.3556" y1="2.0066" x2="0.7874" y2="1.5748" width="0.1998" layer="51"/>
<wire x1="0.7874" y1="1.5748" x2="0.7874" y2="1.2954" width="0.1998" layer="51"/>
<wire x1="0.7874" y1="1.2954" x2="-0.7874" y2="1.2954" width="0.1998" layer="51"/>
<wire x1="-0.7874" y1="1.2954" x2="-0.7874" y2="1.5748" width="0.1998" layer="51"/>
<smd name="1" x="-1.499" y="-1.981" dx="0.8" dy="1.4" layer="1"/>
<smd name="3" x="1.499" y="-1.981" dx="0.8" dy="1.4" layer="1"/>
<smd name="2" x="0" y="-1.727" dx="0.8" dy="1.9" layer="1"/>
<smd name="2@1" x="0" y="0.94" dx="2.032" dy="3.65" layer="1" roundness="75"/>
<text x="-2.54" y="3.175" size="1.27" layer="25">&gt;NAME</text>
<text x="-2.4051" y="-4.3449" size="1.27" layer="27">&gt;VALUE</text>
<rectangle x1="-1.7272" y1="-2.1082" x2="-1.27" y2="-1.27" layer="51"/>
<rectangle x1="1.27" y1="-2.1082" x2="1.7272" y2="-1.27" layer="51"/>
<rectangle x1="-0.2794" y1="-2.1082" x2="0.2794" y2="-1.27" layer="51"/>
<polygon width="0.1998" layer="51">
<vertex x="-0.7874" y="1.3208"/>
<vertex x="-0.7874" y="1.5748"/>
<vertex x="-0.3556" y="2.0066"/>
<vertex x="0.3048" y="2.0066"/>
<vertex x="0.3556" y="2.0066"/>
<vertex x="0.7874" y="1.5748"/>
<vertex x="0.7874" y="1.2954"/>
<vertex x="-0.7874" y="1.2954"/>
</polygon>
</package>
</packages>
</library>
<library name="con-avx">
<description>&lt;b&gt;AVX Connectors&lt;/b&gt;&lt;p&gt;
 &lt;author&gt;Created by librarian@cadsoft.de&lt;/author&gt;</description>
<packages>
<package name="009176003">
<description>&lt;b&gt;Wire to Board Strip IDC Connector&lt;/b&gt; 3 WAY&lt;p&gt;
Source: http://www.avx.com/docs/Catalogs/9176.pdf</description>
<wire x1="5.9169" y1="-2.4454" x2="4.989" y2="-2.4454" width="0.1016" layer="51"/>
<wire x1="4.989" y1="-2.4454" x2="4.4431" y2="-2.4454" width="0.1016" layer="51"/>
<wire x1="4.4431" y1="-2.4454" x2="3.4388" y2="-2.4454" width="0.1016" layer="51"/>
<wire x1="3.4388" y1="-2.4454" x2="2.9257" y2="-2.4454" width="0.1016" layer="51"/>
<wire x1="2.9257" y1="-2.4454" x2="1.0327" y2="-2.4454" width="0.1016" layer="51"/>
<wire x1="1.0327" y1="-2.4454" x2="-1.0306" y2="-2.4454" width="0.1016" layer="51"/>
<wire x1="-1.0306" y1="-2.4454" x2="-2.9127" y2="-2.4454" width="0.1016" layer="51"/>
<wire x1="-2.9127" y1="-2.4454" x2="-4.976" y2="-2.4454" width="0.1016" layer="51"/>
<wire x1="-4.976" y1="-2.4454" x2="-5.9171" y2="-2.4454" width="0.1016" layer="51"/>
<wire x1="-5.9171" y1="-2.4454" x2="-5.9171" y2="2.4563" width="0.1016" layer="21"/>
<wire x1="-5.9171" y1="2.4563" x2="-4.976" y2="2.4563" width="0.1016" layer="51"/>
<wire x1="-4.976" y1="2.4563" x2="-3.4476" y2="2.4563" width="0.1016" layer="51"/>
<wire x1="-3.4476" y1="2.4563" x2="-2.9127" y2="2.4563" width="0.1016" layer="51"/>
<wire x1="-2.9127" y1="2.4563" x2="-1.0306" y2="2.4563" width="0.1016" layer="51"/>
<wire x1="-1.0306" y1="2.4563" x2="1.0327" y2="2.4563" width="0.1016" layer="51"/>
<wire x1="1.0327" y1="2.4563" x2="2.9257" y2="2.4563" width="0.1016" layer="51"/>
<wire x1="2.9257" y1="2.4563" x2="3.4497" y2="2.4563" width="0.1016" layer="51"/>
<wire x1="3.4497" y1="2.4563" x2="4.4541" y2="2.4563" width="0.1016" layer="51"/>
<wire x1="4.4541" y1="2.4563" x2="4.989" y2="2.4563" width="0.1016" layer="51"/>
<wire x1="4.989" y1="2.4563" x2="5.9169" y2="2.4563" width="0.1016" layer="51"/>
<wire x1="5.9169" y1="2.4563" x2="5.9169" y2="-2.4454" width="0.1016" layer="21"/>
<wire x1="4.989" y1="-2.4454" x2="4.989" y2="-2.0415" width="0.1016" layer="51"/>
<wire x1="4.989" y1="-2.0415" x2="4.989" y2="-1.2664" width="0.1016" layer="51"/>
<wire x1="4.989" y1="-1.2664" x2="4.989" y2="-0.7205" width="0.1016" layer="51"/>
<wire x1="4.989" y1="-0.7205" x2="4.989" y2="0.7314" width="0.1016" layer="51"/>
<wire x1="4.989" y1="0.7314" x2="4.989" y2="1.2773" width="0.1016" layer="51"/>
<wire x1="4.989" y1="1.2773" x2="4.989" y2="2.0305" width="0.1016" layer="51"/>
<wire x1="4.989" y1="2.0305" x2="4.989" y2="2.4563" width="0.1016" layer="51"/>
<wire x1="2.9257" y1="-2.4454" x2="2.9257" y2="-2.0415" width="0.1016" layer="51"/>
<wire x1="2.9257" y1="-2.0415" x2="2.9257" y2="-1.2664" width="0.1016" layer="51"/>
<wire x1="2.9257" y1="-1.2664" x2="2.9257" y2="-0.7205" width="0.1016" layer="51"/>
<wire x1="2.9257" y1="-0.7205" x2="2.9257" y2="0.7314" width="0.1016" layer="51"/>
<wire x1="2.9257" y1="0.7314" x2="2.9257" y2="1.2773" width="0.1016" layer="51"/>
<wire x1="2.9257" y1="1.2773" x2="2.9257" y2="2.0305" width="0.1016" layer="51"/>
<wire x1="2.9257" y1="2.0305" x2="2.9257" y2="2.4563" width="0.1016" layer="51"/>
<wire x1="2.9257" y1="-2.0415" x2="3.4279" y2="-2.0415" width="0.1016" layer="51"/>
<wire x1="3.4279" y1="-2.0415" x2="3.4388" y2="-2.0415" width="0.1016" layer="51"/>
<wire x1="3.4388" y1="-2.0415" x2="3.4388" y2="-2.4454" width="0.1016" layer="51"/>
<wire x1="3.4279" y1="-2.0415" x2="4.4322" y2="-2.0415" width="0.1016" layer="51"/>
<wire x1="4.4322" y1="-2.0415" x2="4.4431" y2="-2.0415" width="0.1016" layer="51"/>
<wire x1="4.4431" y1="-2.0415" x2="4.4431" y2="-2.4454" width="0.1016" layer="51"/>
<wire x1="4.4322" y1="-2.0415" x2="4.989" y2="-2.0415" width="0.1016" layer="51"/>
<wire x1="4.989" y1="-0.7205" x2="4.3121" y2="-0.7205" width="0.1016" layer="51"/>
<wire x1="4.3121" y1="-0.7205" x2="3.5916" y2="-0.7205" width="0.1016" layer="51"/>
<wire x1="3.5916" y1="-0.7205" x2="2.9257" y2="-0.7205" width="0.1016" layer="51"/>
<wire x1="2.9257" y1="-1.2664" x2="3.5916" y2="-1.2664" width="0.1016" layer="51"/>
<wire x1="3.5916" y1="-1.2664" x2="4.3121" y2="-1.2664" width="0.1016" layer="51"/>
<wire x1="4.3121" y1="-1.2664" x2="4.989" y2="-1.2664" width="0.1016" layer="51"/>
<wire x1="4.3121" y1="-1.2664" x2="4.3121" y2="-0.7205" width="0.1016" layer="51"/>
<wire x1="3.5916" y1="-1.2664" x2="3.5916" y2="-0.7205" width="0.1016" layer="51"/>
<wire x1="2.9257" y1="0.7314" x2="3.5807" y2="0.7314" width="0.1016" layer="51"/>
<wire x1="3.5807" y1="0.7314" x2="4.3121" y2="0.7314" width="0.1016" layer="51"/>
<wire x1="4.3121" y1="0.7314" x2="4.989" y2="0.7314" width="0.1016" layer="51"/>
<wire x1="4.989" y1="1.2773" x2="4.3121" y2="1.2773" width="0.1016" layer="51"/>
<wire x1="4.3121" y1="1.2773" x2="3.5807" y2="1.2773" width="0.1016" layer="51"/>
<wire x1="3.5807" y1="1.2773" x2="2.9257" y2="1.2773" width="0.1016" layer="51"/>
<wire x1="3.5807" y1="0.7314" x2="3.5807" y2="1.2773" width="0.1016" layer="51"/>
<wire x1="4.3121" y1="0.7314" x2="4.3121" y2="1.2773" width="0.1016" layer="51"/>
<wire x1="4.989" y1="2.0305" x2="4.4541" y2="2.0305" width="0.1016" layer="51"/>
<wire x1="4.4541" y1="2.0305" x2="3.4497" y2="2.0305" width="0.1016" layer="51"/>
<wire x1="3.4497" y1="2.0305" x2="2.9257" y2="2.0305" width="0.1016" layer="51"/>
<wire x1="3.4497" y1="2.0305" x2="3.4497" y2="2.4563" width="0.1016" layer="51"/>
<wire x1="4.4541" y1="2.0305" x2="4.4541" y2="2.4563" width="0.1016" layer="51"/>
<wire x1="1.0327" y1="-2.4454" x2="1.0327" y2="-2.0415" width="0.1016" layer="51"/>
<wire x1="1.0327" y1="-2.0415" x2="1.0327" y2="-1.2664" width="0.1016" layer="51"/>
<wire x1="1.0327" y1="-1.2664" x2="1.0327" y2="-0.7205" width="0.1016" layer="51"/>
<wire x1="1.0327" y1="-0.7205" x2="1.0327" y2="0.7314" width="0.1016" layer="51"/>
<wire x1="1.0327" y1="0.7314" x2="1.0327" y2="1.2773" width="0.1016" layer="51"/>
<wire x1="1.0327" y1="1.2773" x2="1.0327" y2="2.0305" width="0.1016" layer="51"/>
<wire x1="1.0327" y1="2.0305" x2="1.0327" y2="2.4563" width="0.1016" layer="51"/>
<wire x1="-1.0306" y1="-2.4454" x2="-1.0306" y2="-2.0415" width="0.1016" layer="51"/>
<wire x1="-1.0306" y1="-2.0415" x2="-1.0306" y2="-1.2664" width="0.1016" layer="51"/>
<wire x1="-1.0306" y1="-1.2664" x2="-1.0306" y2="-0.7205" width="0.1016" layer="51"/>
<wire x1="-1.0306" y1="-0.7205" x2="-1.0306" y2="0.7314" width="0.1016" layer="51"/>
<wire x1="-1.0306" y1="0.7314" x2="-1.0306" y2="1.2773" width="0.1016" layer="51"/>
<wire x1="-1.0306" y1="1.2773" x2="-1.0306" y2="2.0305" width="0.1016" layer="51"/>
<wire x1="-1.0306" y1="2.0305" x2="-1.0306" y2="2.4563" width="0.1016" layer="51"/>
<wire x1="-1.0306" y1="-2.0415" x2="-0.5284" y2="-2.0415" width="0.1016" layer="51"/>
<wire x1="-0.5284" y1="-2.0415" x2="-0.5175" y2="-2.0415" width="0.1016" layer="51"/>
<wire x1="-0.5175" y1="-2.0415" x2="-0.5175" y2="-2.4454" width="0.1016" layer="51"/>
<wire x1="-0.5284" y1="-2.0415" x2="0.4759" y2="-2.0415" width="0.1016" layer="51"/>
<wire x1="0.4759" y1="-2.0415" x2="0.4868" y2="-2.0415" width="0.1016" layer="51"/>
<wire x1="0.4868" y1="-2.0415" x2="0.4868" y2="-2.4454" width="0.1016" layer="51"/>
<wire x1="0.4759" y1="-2.0415" x2="1.0327" y2="-2.0415" width="0.1016" layer="51"/>
<wire x1="1.0327" y1="-0.7205" x2="0.3558" y2="-0.7205" width="0.1016" layer="51"/>
<wire x1="0.3558" y1="-0.7205" x2="-0.3647" y2="-0.7205" width="0.1016" layer="51"/>
<wire x1="-0.3647" y1="-0.7205" x2="-1.0306" y2="-0.7205" width="0.1016" layer="51"/>
<wire x1="-1.0306" y1="-1.2664" x2="-0.3647" y2="-1.2664" width="0.1016" layer="51"/>
<wire x1="-0.3647" y1="-1.2664" x2="0.3558" y2="-1.2664" width="0.1016" layer="51"/>
<wire x1="0.3558" y1="-1.2664" x2="1.0327" y2="-1.2664" width="0.1016" layer="51"/>
<wire x1="0.3558" y1="-1.2664" x2="0.3558" y2="-0.7205" width="0.1016" layer="51"/>
<wire x1="-0.3647" y1="-1.2664" x2="-0.3647" y2="-0.7205" width="0.1016" layer="51"/>
<wire x1="-1.0306" y1="0.7314" x2="-0.3756" y2="0.7314" width="0.1016" layer="51"/>
<wire x1="-0.3756" y1="0.7314" x2="0.3558" y2="0.7314" width="0.1016" layer="51"/>
<wire x1="0.3558" y1="0.7314" x2="1.0327" y2="0.7314" width="0.1016" layer="51"/>
<wire x1="1.0327" y1="1.2773" x2="0.3558" y2="1.2773" width="0.1016" layer="51"/>
<wire x1="0.3558" y1="1.2773" x2="-0.3756" y2="1.2773" width="0.1016" layer="51"/>
<wire x1="-0.3756" y1="1.2773" x2="-1.0306" y2="1.2773" width="0.1016" layer="51"/>
<wire x1="-0.3756" y1="0.7314" x2="-0.3756" y2="1.2773" width="0.1016" layer="51"/>
<wire x1="0.3558" y1="0.7314" x2="0.3558" y2="1.2773" width="0.1016" layer="51"/>
<wire x1="1.0327" y1="2.0305" x2="0.4978" y2="2.0305" width="0.1016" layer="51"/>
<wire x1="0.4978" y1="2.0305" x2="-0.5066" y2="2.0305" width="0.1016" layer="51"/>
<wire x1="-0.5066" y1="2.0305" x2="-1.0306" y2="2.0305" width="0.1016" layer="51"/>
<wire x1="-0.5066" y1="2.0305" x2="-0.5066" y2="2.4563" width="0.1016" layer="51"/>
<wire x1="0.4978" y1="2.0305" x2="0.4978" y2="2.4563" width="0.1016" layer="51"/>
<wire x1="-2.9127" y1="-2.4454" x2="-2.9127" y2="-2.0415" width="0.1016" layer="51"/>
<wire x1="-2.9127" y1="-2.0415" x2="-2.9127" y2="-1.2664" width="0.1016" layer="51"/>
<wire x1="-2.9127" y1="-1.2664" x2="-2.9127" y2="-0.7205" width="0.1016" layer="51"/>
<wire x1="-2.9127" y1="-0.7205" x2="-2.9127" y2="0.7314" width="0.1016" layer="51"/>
<wire x1="-2.9127" y1="0.7314" x2="-2.9127" y2="1.2773" width="0.1016" layer="51"/>
<wire x1="-2.9127" y1="1.2773" x2="-2.9127" y2="2.0305" width="0.1016" layer="51"/>
<wire x1="-2.9127" y1="2.0305" x2="-2.9127" y2="2.4563" width="0.1016" layer="51"/>
<wire x1="-4.976" y1="-2.4454" x2="-4.976" y2="-2.0415" width="0.1016" layer="51"/>
<wire x1="-4.976" y1="-2.0415" x2="-4.976" y2="-1.2664" width="0.1016" layer="51"/>
<wire x1="-4.976" y1="-1.2664" x2="-4.976" y2="-0.7205" width="0.1016" layer="51"/>
<wire x1="-4.976" y1="-0.7205" x2="-4.976" y2="0.7314" width="0.1016" layer="51"/>
<wire x1="-4.976" y1="0.7314" x2="-4.976" y2="1.2773" width="0.1016" layer="51"/>
<wire x1="-4.976" y1="1.2773" x2="-4.976" y2="2.0305" width="0.1016" layer="51"/>
<wire x1="-4.976" y1="2.0305" x2="-4.976" y2="2.4563" width="0.1016" layer="51"/>
<wire x1="-4.976" y1="-2.0415" x2="-4.4738" y2="-2.0415" width="0.1016" layer="51"/>
<wire x1="-4.4738" y1="-2.0415" x2="-4.4629" y2="-2.0415" width="0.1016" layer="51"/>
<wire x1="-4.4629" y1="-2.0415" x2="-4.4629" y2="-2.4454" width="0.1016" layer="51"/>
<wire x1="-4.4738" y1="-2.0415" x2="-3.4695" y2="-2.0415" width="0.1016" layer="51"/>
<wire x1="-3.4695" y1="-2.0415" x2="-3.4586" y2="-2.0415" width="0.1016" layer="51"/>
<wire x1="-3.4586" y1="-2.0415" x2="-3.4586" y2="-2.4454" width="0.1016" layer="51"/>
<wire x1="-3.4695" y1="-2.0415" x2="-2.9127" y2="-2.0415" width="0.1016" layer="51"/>
<wire x1="-2.9127" y1="-0.7205" x2="-3.5896" y2="-0.7205" width="0.1016" layer="51"/>
<wire x1="-3.5896" y1="-0.7205" x2="-4.3101" y2="-0.7205" width="0.1016" layer="51"/>
<wire x1="-4.3101" y1="-0.7205" x2="-4.976" y2="-0.7205" width="0.1016" layer="51"/>
<wire x1="-4.976" y1="-1.2664" x2="-4.3101" y2="-1.2664" width="0.1016" layer="51"/>
<wire x1="-4.3101" y1="-1.2664" x2="-3.5896" y2="-1.2664" width="0.1016" layer="51"/>
<wire x1="-3.5896" y1="-1.2664" x2="-2.9127" y2="-1.2664" width="0.1016" layer="51"/>
<wire x1="-3.5896" y1="-1.2664" x2="-3.5896" y2="-0.7205" width="0.1016" layer="51"/>
<wire x1="-4.3101" y1="-1.2664" x2="-4.3101" y2="-0.7205" width="0.1016" layer="51"/>
<wire x1="-4.976" y1="0.7314" x2="-4.321" y2="0.7314" width="0.1016" layer="51"/>
<wire x1="-4.321" y1="0.7314" x2="-3.5896" y2="0.7314" width="0.1016" layer="51"/>
<wire x1="-3.5896" y1="0.7314" x2="-2.9127" y2="0.7314" width="0.1016" layer="51"/>
<wire x1="-2.9127" y1="1.2773" x2="-3.5896" y2="1.2773" width="0.1016" layer="51"/>
<wire x1="-3.5896" y1="1.2773" x2="-4.321" y2="1.2773" width="0.1016" layer="51"/>
<wire x1="-4.321" y1="1.2773" x2="-4.976" y2="1.2773" width="0.1016" layer="51"/>
<wire x1="-4.321" y1="0.7314" x2="-4.321" y2="1.2773" width="0.1016" layer="51"/>
<wire x1="-3.5896" y1="0.7314" x2="-3.5896" y2="1.2773" width="0.1016" layer="51"/>
<wire x1="-2.9127" y1="2.0305" x2="-3.4476" y2="2.0305" width="0.1016" layer="51"/>
<wire x1="-3.4476" y1="2.0305" x2="-4.452" y2="2.0305" width="0.1016" layer="51"/>
<wire x1="-4.452" y1="2.0305" x2="-4.976" y2="2.0305" width="0.1016" layer="51"/>
<wire x1="-4.452" y1="2.0305" x2="-4.452" y2="2.4563" width="0.1016" layer="51"/>
<wire x1="-3.4476" y1="2.0305" x2="-3.4476" y2="2.4563" width="0.1016" layer="51"/>
<smd name="1" x="-4" y="0" dx="3" dy="5" layer="1"/>
<smd name="2" x="0" y="0" dx="3" dy="5" layer="1"/>
<smd name="3" x="4" y="0" dx="3" dy="5" layer="1"/>
<text x="-5.75" y="2.75" size="1.27" layer="25">&gt;NAME</text>
<text x="-5.75" y="-4" size="1.27" layer="27">&gt;VALUE</text>
</package>
</packages>
</library>
</libraries>
<attributes>
</attributes>
<variantdefs>
</variantdefs>
<classes>
<class number="0" name="default" width="0" drill="0">
</class>
</classes>
<designrules name="default">
<description language="de">&lt;b&gt;EAGLE Design Rules&lt;/b&gt;
&lt;p&gt;
Die Standard-Design-Rules sind so gewählt, dass sie für 
die meisten Anwendungen passen. Sollte ihre Platine 
besondere Anforderungen haben, treffen Sie die erforderlichen
Einstellungen hier und speichern die Design Rules unter 
einem neuen Namen ab.</description>
<description language="en">&lt;b&gt;EAGLE Design Rules&lt;/b&gt;
&lt;p&gt;
The default Design Rules have been set to cover
a wide range of applications. Your particular design
may have different requirements, so please make the
necessary adjustments and save your customized
design rules under a new name.</description>
<param name="layerSetup" value="(1*16)"/>
<param name="mtCopper" value="0.035mm 0.035mm 0.035mm 0.035mm 0.035mm 0.035mm 0.035mm 0.035mm 0.035mm 0.035mm 0.035mm 0.035mm 0.035mm 0.035mm 0.035mm 0.035mm"/>
<param name="mtIsolate" value="1.5mm 0.15mm 0.2mm 0.15mm 0.2mm 0.15mm 0.2mm 0.15mm 0.2mm 0.15mm 0.2mm 0.15mm 0.2mm 0.15mm 0.2mm"/>
<param name="mdWireWire" value="8mil"/>
<param name="mdWirePad" value="8mil"/>
<param name="mdWireVia" value="8mil"/>
<param name="mdPadPad" value="8mil"/>
<param name="mdPadVia" value="8mil"/>
<param name="mdViaVia" value="8mil"/>
<param name="mdSmdPad" value="8mil"/>
<param name="mdSmdVia" value="8mil"/>
<param name="mdSmdSmd" value="8mil"/>
<param name="mdViaViaSameLayer" value="8mil"/>
<param name="mnLayersViaInSmd" value="2"/>
<param name="mdCopperDimension" value="40mil"/>
<param name="mdDrill" value="8mil"/>
<param name="mdSmdStop" value="0mil"/>
<param name="msWidth" value="10mil"/>
<param name="msDrill" value="24mil"/>
<param name="msMicroVia" value="9.99mm"/>
<param name="msBlindViaRatio" value="0.5"/>
<param name="rvPadTop" value="0.25"/>
<param name="rvPadInner" value="0.25"/>
<param name="rvPadBottom" value="0.25"/>
<param name="rvViaOuter" value="0.25"/>
<param name="rvViaInner" value="0.25"/>
<param name="rvMicroViaOuter" value="0.25"/>
<param name="rvMicroViaInner" value="0.25"/>
<param name="rlMinPadTop" value="10mil"/>
<param name="rlMaxPadTop" value="20mil"/>
<param name="rlMinPadInner" value="10mil"/>
<param name="rlMaxPadInner" value="20mil"/>
<param name="rlMinPadBottom" value="10mil"/>
<param name="rlMaxPadBottom" value="20mil"/>
<param name="rlMinViaOuter" value="8mil"/>
<param name="rlMaxViaOuter" value="20mil"/>
<param name="rlMinViaInner" value="8mil"/>
<param name="rlMaxViaInner" value="20mil"/>
<param name="rlMinMicroViaOuter" value="4mil"/>
<param name="rlMaxMicroViaOuter" value="20mil"/>
<param name="rlMinMicroViaInner" value="4mil"/>
<param name="rlMaxMicroViaInner" value="20mil"/>
<param name="psTop" value="-1"/>
<param name="psBottom" value="-1"/>
<param name="psFirst" value="-1"/>
<param name="psElongationLong" value="100"/>
<param name="psElongationOffset" value="100"/>
<param name="mvStopFrame" value="1"/>
<param name="mvCreamFrame" value="0"/>
<param name="mlMinStopFrame" value="4mil"/>
<param name="mlMaxStopFrame" value="4mil"/>
<param name="mlMinCreamFrame" value="0mil"/>
<param name="mlMaxCreamFrame" value="0mil"/>
<param name="mlViaStopLimit" value="0mil"/>
<param name="srRoundness" value="0"/>
<param name="srMinRoundness" value="0mil"/>
<param name="srMaxRoundness" value="0mil"/>
<param name="slThermalIsolate" value="10mil"/>
<param name="slThermalsForVias" value="0"/>
<param name="dpMaxLengthDifference" value="10mm"/>
<param name="dpGapFactor" value="2.5"/>
<param name="checkGrid" value="0"/>
<param name="checkAngle" value="0"/>
<param name="checkFont" value="1"/>
<param name="checkRestrict" value="1"/>
<param name="useDiameter" value="13"/>
<param name="maxErrors" value="50"/>
</designrules>
<autorouter>
<pass name="Default">
<param name="RoutingGrid" value="50mil"/>
<param name="AutoGrid" value="1"/>
<param name="Efforts" value="0"/>
<param name="TopRouterVariant" value="1"/>
<param name="tpViaShape" value="round"/>
<param name="PrefDir.1" value="a"/>
<param name="PrefDir.2" value="0"/>
<param name="PrefDir.3" value="0"/>
<param name="PrefDir.4" value="0"/>
<param name="PrefDir.5" value="0"/>
<param name="PrefDir.6" value="0"/>
<param name="PrefDir.7" value="0"/>
<param name="PrefDir.8" value="0"/>
<param name="PrefDir.9" value="0"/>
<param name="PrefDir.10" value="0"/>
<param name="PrefDir.11" value="0"/>
<param name="PrefDir.12" value="0"/>
<param name="PrefDir.13" value="0"/>
<param name="PrefDir.14" value="0"/>
<param name="PrefDir.15" value="0"/>
<param name="PrefDir.16" value="a"/>
<param name="cfVia" value="8"/>
<param name="cfNonPref" value="5"/>
<param name="cfChangeDir" value="2"/>
<param name="cfOrthStep" value="2"/>
<param name="cfDiagStep" value="3"/>
<param name="cfExtdStep" value="0"/>
<param name="cfBonusStep" value="1"/>
<param name="cfMalusStep" value="1"/>
<param name="cfPadImpact" value="4"/>
<param name="cfSmdImpact" value="4"/>
<param name="cfBusImpact" value="0"/>
<param name="cfHugging" value="3"/>
<param name="cfAvoid" value="4"/>
<param name="cfPolygon" value="10"/>
<param name="cfBase.1" value="0"/>
<param name="cfBase.2" value="1"/>
<param name="cfBase.3" value="1"/>
<param name="cfBase.4" value="1"/>
<param name="cfBase.5" value="1"/>
<param name="cfBase.6" value="1"/>
<param name="cfBase.7" value="1"/>
<param name="cfBase.8" value="1"/>
<param name="cfBase.9" value="1"/>
<param name="cfBase.10" value="1"/>
<param name="cfBase.11" value="1"/>
<param name="cfBase.12" value="1"/>
<param name="cfBase.13" value="1"/>
<param name="cfBase.14" value="1"/>
<param name="cfBase.15" value="1"/>
<param name="cfBase.16" value="0"/>
<param name="mnVias" value="20"/>
<param name="mnSegments" value="9999"/>
<param name="mnExtdSteps" value="9999"/>
<param name="mnRipupLevel" value="10"/>
<param name="mnRipupSteps" value="100"/>
<param name="mnRipupTotal" value="100"/>
</pass>
<pass name="Follow-me" refer="Default" active="yes">
</pass>
<pass name="Busses" refer="Default" active="yes">
<param name="cfNonPref" value="4"/>
<param name="cfBusImpact" value="4"/>
<param name="cfHugging" value="0"/>
<param name="mnVias" value="0"/>
</pass>
<pass name="Route" refer="Default" active="yes">
</pass>
<pass name="Optimize1" refer="Default" active="yes">
<param name="cfVia" value="99"/>
<param name="cfExtdStep" value="10"/>
<param name="cfHugging" value="1"/>
<param name="mnExtdSteps" value="1"/>
<param name="mnRipupLevel" value="0"/>
</pass>
<pass name="Optimize2" refer="Optimize1" active="yes">
<param name="cfNonPref" value="0"/>
<param name="cfChangeDir" value="6"/>
<param name="cfExtdStep" value="0"/>
<param name="cfBonusStep" value="2"/>
<param name="cfMalusStep" value="2"/>
<param name="cfPadImpact" value="2"/>
<param name="cfSmdImpact" value="2"/>
<param name="cfHugging" value="0"/>
</pass>
<pass name="Optimize3" refer="Optimize2" active="yes">
<param name="cfChangeDir" value="8"/>
<param name="cfPadImpact" value="0"/>
<param name="cfSmdImpact" value="0"/>
</pass>
<pass name="Optimize4" refer="Optimize3" active="yes">
<param name="cfChangeDir" value="25"/>
</pass>
</autorouter>
<elements>
<element name="Q1" library="semicon-smd-ipc" package="SOT89" value="" x="12.7" y="20.32" rot="R270"/>
<element name="R1" library="pot" package="3223G" value="10k" x="11.43" y="12.7" smashed="yes" rot="R90">
<attribute name="NAME" x="9.525" y="8.763" size="1.27" layer="25" ratio="10"/>
<attribute name="VALUE" x="15.24" y="9.525" size="1.27" layer="27" ratio="10" rot="R90"/>
</element>
<element name="R2" library="rcl" package="M1206" value="470R" x="3.81" y="11.43" smashed="yes">
<attribute name="NAME" x="2.54" y="9.017" size="1.27" layer="25" ratio="10"/>
<attribute name="VALUE" x="6.9088" y="9.144" size="1.27" layer="27" ratio="10" rot="R90"/>
</element>
<element name="VR1" library="v-reg3" package="SO-08" value="" x="3.81" y="19.05" rot="R180"/>
<element name="BAT" library="con-avx" package="009176003" value="" x="8.89" y="3.81">
<attribute name="OC_FARNELL" value="1778540" x="8.89" y="3.81" size="1.778" layer="27" display="off"/>
<attribute name="OC_NEWARK" value="52R7005" x="8.89" y="3.81" size="1.778" layer="27" display="off"/>
<attribute name="MF" value="" x="8.89" y="3.81" size="1.778" layer="27" display="off"/>
<attribute name="MPN" value="009176003001106" x="8.89" y="3.81" size="1.778" layer="27" display="off"/>
</element>
</elements>
<signals>
<signal name="N$1">
<contactref element="VR1" pad="2"/>
<contactref element="Q1" pad="1"/>
<contactref element="R2" pad="1"/>
<contactref element="VR1" pad="3"/>
<contactref element="VR1" pad="6"/>
<contactref element="VR1" pad="7"/>
<wire x1="2.54" y1="13.97" x2="2.54" y2="11.56" width="0.8128" layer="1"/>
<wire x1="2.54" y1="11.56" x2="2.41" y2="11.43" width="0.8128" layer="1"/>
<wire x1="3.175" y1="16.45" x2="3.87" y2="16.45" width="0.8128" layer="1"/>
<wire x1="4.445" y1="16.45" x2="3.87" y2="16.45" width="0.8128" layer="1"/>
<wire x1="3.87" y1="16.45" x2="3.81" y2="16.51" width="0.8128" layer="1"/>
<wire x1="3.81" y1="16.51" x2="3.81" y2="21.59" width="0.8128" layer="1"/>
<wire x1="3.81" y1="21.59" x2="3.235" y2="21.59" width="0.8128" layer="1"/>
<wire x1="3.235" y1="21.59" x2="3.175" y2="21.65" width="0.8128" layer="1"/>
<wire x1="3.81" y1="21.59" x2="4.385" y2="21.59" width="0.8128" layer="1"/>
<wire x1="4.385" y1="21.59" x2="4.445" y2="21.65" width="0.8128" layer="1"/>
<wire x1="10.719" y1="21.819" x2="9.931" y2="21.819" width="0.8128" layer="1"/>
<wire x1="9.931" y1="21.819" x2="7.62" y2="24.13" width="0.8128" layer="1"/>
<wire x1="7.62" y1="24.13" x2="5.08" y2="24.13" width="0.8128" layer="1"/>
<wire x1="5.08" y1="24.13" x2="3.81" y2="22.86" width="0.8128" layer="1"/>
<wire x1="3.81" y1="22.86" x2="3.81" y2="21.59" width="0.8128" layer="1"/>
<wire x1="2.54" y1="13.97" x2="3.81" y2="15.24" width="0.8128" layer="1"/>
<wire x1="3.81" y1="15.24" x2="3.81" y2="16.39" width="0.8128" layer="1"/>
<wire x1="3.81" y1="16.39" x2="3.87" y2="16.45" width="0.8128" layer="1"/>
</signal>
<signal name="N$2">
<contactref element="VR1" pad="1"/>
<contactref element="R1" pad="1"/>
<contactref element="Q1" pad="2"/>
<contactref element="BAT" pad="2"/>
<contactref element="BAT" pad="3"/>
<wire x1="8.89" y1="3.81" x2="12.89" y2="3.81" width="0.8128" layer="1"/>
<wire x1="10.03" y1="10.5" x2="10.03" y2="4.95" width="0.8128" layer="1"/>
<wire x1="10.03" y1="4.95" x2="8.89" y2="3.81" width="0.8128" layer="1"/>
<wire x1="10.973" y1="20.32" x2="7.045" y2="20.32" width="0.8128" layer="1"/>
<wire x1="7.045" y1="20.32" x2="5.715" y2="21.65" width="0.8128" layer="1"/>
<wire x1="10.973" y1="20.32" x2="12.7" y2="20.32" width="0.8128" layer="1"/>
<wire x1="12.7" y1="20.32" x2="16.51" y2="16.51" width="0.8128" layer="1"/>
<wire x1="16.51" y1="16.51" x2="16.51" y2="7.43" width="0.8128" layer="1"/>
<wire x1="16.51" y1="7.43" x2="12.89" y2="3.81" width="0.8128" layer="1"/>
</signal>
<signal name="N$3">
<contactref element="VR1" pad="8"/>
<contactref element="R1" pad="2"/>
<wire x1="5.715" y1="16.45" x2="9.88" y2="16.45" width="0.8128" layer="1"/>
<wire x1="9.88" y1="16.45" x2="11.43" y2="14.9" width="0.8128" layer="1"/>
</signal>
<signal name="N$4">
<contactref element="R1" pad="3"/>
<contactref element="R2" pad="2"/>
<contactref element="Q1" pad="3"/>
<contactref element="BAT" pad="1"/>
<wire x1="5.21" y1="11.43" x2="5.21" y2="4.13" width="0.8128" layer="1"/>
<wire x1="5.21" y1="4.13" x2="4.89" y2="3.81" width="0.8128" layer="1"/>
<wire x1="6.48" y1="12.7" x2="5.21" y2="11.43" width="0.8128" layer="1"/>
<wire x1="6.48" y1="12.7" x2="11.43" y2="12.7" width="0.8128" layer="1"/>
<wire x1="11.43" y1="12.7" x2="12.7" y2="11.43" width="0.8128" layer="1"/>
<wire x1="12.7" y1="11.43" x2="12.7" y2="10.63" width="0.8128" layer="1"/>
<wire x1="12.7" y1="10.63" x2="12.83" y2="10.5" width="0.8128" layer="1"/>
<wire x1="11.43" y1="12.7" x2="12.7" y2="12.7" width="0.8128" layer="1"/>
<wire x1="12.7" y1="12.7" x2="13.97" y2="13.97" width="0.8128" layer="1"/>
<wire x1="13.97" y1="13.97" x2="13.97" y2="15.57" width="0.8128" layer="1"/>
<wire x1="13.97" y1="15.57" x2="10.719" y2="18.821" width="0.8128" layer="1"/>
</signal>
</signals>
</board>
</drawing>
</eagle>
